{
    "extends": "tslint:recommended",
    "rules": {
        "max-line-length": {
            "options": [100]
        },
        "new-parens": true,
        "no-console": false,
        "no-arg": true,
        "no-bitwise": true,
        "no-conditional-assignment": true,
        "no-consecutive-blank-lines": true,
        "member-ordering": false,
        "max-classes-per-file": false
    },
    "jsRules": {
        "max-line-length": {
            "options": [120]
        }
    }
}